…
    ## Rows: 822 Columns: 9
    ## ── Column specification ────────────────────────────────────────────────────────
    ## Delimiter: ","
    ## dbl  (8): prez_gop, gov_gop, sen_gop, rep_gop, prez_dem, gov_dem, sen_dem, r...
    ## date (1): mon
    ## 
    ## ℹ Use `spec()` to retrieve the full column specification for this data.
    ## ℹ Specify the column types or set `show_col_types = FALSE` to quiet this message.

``` r
pols_month_df
```

    ## # A tibble: 822 × 9
    ##     year month gov_gop sen_gop rep_gop gov_dem sen_dem rep_dem president
    ##    <int> <chr>   <dbl>   <dbl>   <dbl>   <dbl>   <dbl>   <dbl> <chr>    
    ##  1  1947 jan        23      51     253      23      45     198 dem      
    ##  2  1947 feb        23      51     253      23      45     198 dem      
    ##  3  1947 mar        23      51     253      23      45     198 dem      
    ##  4  1947 apr        23      51     253      23      45     198 dem      
    ##  5  1947 may        23      51     253      23      45     198 dem      
    ##  6  1947 jun        23      51     253      23      45     198 dem      
    ##  7  1947 jul        23      51     253      23      45     198 dem      
    ##  8  1947 aug        23      51     253      23      45     198 dem      
    ##  9  1947 sep        23      51     253      23      45     198 dem      
    ## 10  1947 oct        23      51     253      23      45     198 dem      
    ## # ℹ 812 more rows
…
    ## Rows: 787 Columns: 2
    ## ── Column specification ────────────────────────────────────────────────────────
    ## Delimiter: ","
    ## chr (1): date
    ## dbl (1): close
    ## 
    ## ℹ Use `spec()` to retrieve the full column specification for this data.
    ## ℹ Specify the column types or set `show_col_types = FALSE` to quiet this message.

``` r
snp_df
```

    ## # A tibble: 787 × 4
    ##     year month   day close
    ##    <dbl> <chr> <int> <dbl>
    ##  1  1950 jan       3  17.0
    ##  2  1950 feb       1  17.2
    ##  3  1950 mar       1  17.3
    ##  4  1950 apr       3  18.0
    ##  5  1950 may       1  18.8
    ##  6  1950 jun       1  17.7
    ##  7  1950 jul       3  17.8
    ##  8  1950 aug       1  18.4
    ##  9  1950 sep       1  19.5
    ## 10  1950 oct       2  19.5
    ## # ℹ 777 more rows
…
    ## Rows: 68 Columns: 13
    ## ── Column specification ────────────────────────────────────────────────────────
    ## Delimiter: ","
    ## dbl (13): Year, Jan, Feb, Mar, Apr, May, Jun, Jul, Aug, Sep, Oct, Nov, Dec
    ## 
    ## ℹ Use `spec()` to retrieve the full column specification for this data.
    ## ℹ Specify the column types or set `show_col_types = FALSE` to quiet this message.

``` r
unemployment_df
```

    ## # A tibble: 816 × 3
    ##     year month unemployment_rate
    ##    <dbl> <chr>             <dbl>
    ##  1  1948 jan                 3.4
    ##  2  1948 feb                 3.8
    ##  3  1948 mar                 4  
    ##  4  1948 apr                 3.9
    ##  5  1948 may                 3.5
    ##  6  1948 jun                 3.6
    ##  7  1948 jul                 3.6
    ##  8  1948 aug                 3.9
    ##  9  1948 sep                 3.8
    ## 10  1948 oct                 3.7
    ## # ℹ 806 more rows
…
